JSBIURSGIUGRU4U47GNOAG798H9G4NOG5HUGRAUIAGURGUOTRIORNOOE5INHAERHINSZBIHOGARSO
BRSABKAUGWIULUT4OUGGAWIAOG4WHG8G4INAOSGAOOG8HRSNGLROURAGSIOGRUFEFUE
HUFehEFHUEnufb87v4fivnouevw8h9	fnio8HP9viohoniogropgrogino8ainorino
UUP9AHHUGP98RGAHF8PAOHBZ8PFXBOF8BRZIHO8FOBFHZIUHBRHOB8BRMOHNZOIUNZORB
OUueILVDBAFKBF