**********************************************************************
               E J E R C I C I O  3  -  POR LUIS ROMERO MORENO        
**********************************************************************

COD REG  NOMBRE REGISTRO DIRECTORIO REGISTRO                          
======== =============== =============================================
REG00002 PRUEBAREGISTRO2 INICIO DE DIRECTORIO  ->  FINAL DE DIRECTORIO
REG00005 PRUEBAREGISTRO5 INICIO DE DIRECTORIO  ->  FINAL DE DIRECTORIO
REG00003 PRUEBAREGISTR03 INICIO DE DIRECTORIO  <-  FINAL DE DIRECTORIO